Grading Rubric for HW04

Two Files were created CrapsIf.java                          0 pts
                                      CrapsSwitch.java
Random Code						 0 pts
User provided input				 0 pts
Determine Slang					 0 pts
Print the Slang					 0 pts
Comments						 0 pts
Compiles						 0 pts 


0%